List EnvLogger files — env_ls • envlogger
…
    Non-EnvLogger data reports

Otherwise unsupported files that are accompanied by an associated metadata file are assumed to be valid report files created by devices outside of the EnvLogger ecosystem, and will therefore be listed as "valid reports" (but this is no guarantee that they will be successfully read by downstream functions).

    See also

    read_env(), metadata_create_file(), env_example()

    Examples

paths <- env_example()
env_ls(paths)
#> # A tibble: 33 × 9
#>    path                    int chr   rep   rep_env rep_other has_met log   met  
#>    <chr>                 <dbl> <chr> <lgl> <lgl>   <lgl>     <lgl>   <lgl> <lgl>
#>  1 /private/var/folders…     1 repo… TRUE  TRUE    FALSE     FALSE   FALSE FALSE
#>  2 /private/var/folders…     1 repo… TRUE  TRUE    FALSE     TRUE    FALSE FALSE
#>  3 /private/var/folders…     1 repo… TRUE  TRUE    FALSE     TRUE    FALSE FALSE
#>  4 /private/var/folders…     1 repo… TRUE  TRUE    FALSE     FALSE   FALSE FALSE
#>  5 /private/var/folders…     1 repo… TRUE  TRUE    FALSE     FALSE   FALSE FALSE
#>  6 /private/var/folders…     1 repo… TRUE  TRUE    FALSE     FALSE   FALSE FALSE
#>  7 /private/var/folders…     1 repo… TRUE  TRUE    FALSE     FALSE   FALSE FALSE
#>  8 /private/var/folders…     1 repo… TRUE  FALSE   TRUE      TRUE    FALSE FALSE
#>  9 /private/var/folders…     1 repo… TRUE  TRUE    FALSE     FALSE   FALSE FALSE
#> 10 /private/var/folders…     1 repo… TRUE  TRUE    FALSE     FALSE   FALSE FALSE
#> # ℹ 23 more rows
…
