Group EnvLogger data by id elements and summarise it — summarise_env • envlogger
…
env <- parse_id_cctbon(env)

# daily max for each logger
daily_max <- summarise_env(
   env,
   var = "temp",
   fun_list = list(max = max),
   by_day = TRUE
   )
daily_max
#> # A tibble: 3,635 × 9
#>    id         site  lvl   exp    rep1 rep2  sgmnt t                     max
#>    <chr>      <fct> <fct> <fct> <dbl> <chr> <chr> <dttm>              <dbl>
#>  1 ptzzymc01a ptzzy m     c         1 a     1a    2023-04-01 00:00:00  16.3
#>  2 ptzzymc02a ptzzy m     c         2 a     1a    2023-04-01 00:00:00  16.4
#>  3 ptzzymh01a ptzzy m     h         1 a     1a    2023-04-01 00:00:00  17.7
#>  4 ptzzymh02a ptzzy m     h         2 a     1a    2023-04-01 00:00:00  17.0
#>  5 ptzzymc01a ptzzy m     c         1 a     1a    2023-04-02 00:00:00  16.1
#>  6 ptzzymc02a ptzzy m     c         2 a     1a    2023-04-02 00:00:00  16.1
#>  7 ptzzymh01a ptzzy m     h         1 a     1a    2023-04-02 00:00:00  19.6
#>  8 ptzzymh02a ptzzy m     h         2 a     1a    2023-04-02 00:00:00  19.2
#>  9 ptzzymc01a ptzzy m     c         1 a     1a    2023-04-03 00:00:00  15.7
#> 10 ptzzymc02a ptzzy m     c         2 a     1a    2023-04-03 00:00:00  15.7
#> # ℹ 3,625 more rows
# daily minimum, average and maximum daily_max for each site
summarise_env(
   daily_max,
   var = "max",
   fun_list = list(
       dmax_min = min,
       dmax_avg = mean,
       dmax_max = max,
       sd = sd
       ),
   by_day = TRUE,
   by_site = TRUE,
   same_days = TRUE
   )
#> # A tibble: 782 × 7
#>    id    site  t                   dmax_min dmax_avg dmax_max    sd
#>    <fct> <fct> <dttm>                 <dbl>    <dbl>    <dbl> <dbl>
#>  1 ptzzw ptzzw 2023-04-30 00:00:00     23.2     28.4     34.3  6.03
#>  2 ptzzy ptzzy 2023-04-30 00:00:00     17.1     18.8     20.6  1.56
#>  3 ptzzw ptzzw 2023-05-01 00:00:00     23.2     28.1     32.6  4.97
#>  4 ptzzy ptzzy 2023-05-01 00:00:00     16.6     18.5     19.7  1.41
#>  5 ptzzw ptzzw 2023-05-02 00:00:00     22.8     25.2     27.5  2.60
#>  6 ptzzy ptzzy 2023-05-02 00:00:00     16.4     19.3     21.6  2.68
#>  7 ptzzw ptzzw 2023-05-03 00:00:00     23.4     26.6     28.9  2.62
#>  8 ptzzy ptzzy 2023-05-03 00:00:00     16.5     18.8     21.6  2.67
#>  9 ptzzw ptzzw 2023-05-04 00:00:00     22.8     26.4     29.0  2.92
#> 10 ptzzy ptzzy 2023-05-04 00:00:00     17.2     19.7     22.3  2.66
#> # ℹ 772 more rows
…
